<b>
:::::::::::::::::::::::::::::::::::::::::::::::<br>
:::::::::::: extraPedu :::::::::::<br>
:::    ✮ No DDoS / Phishing    :::::::::<br>
:::    ✮ No Torrent / Spam     :::::::::::<br>
:::    ✮ No Over-Downloading   :::::<br>
:::    ✮ No Multilogin      :::::::::::::::::::<br>
:::    ✮ No Proxy Abuse        :::::::::::::::<br>
:::    ✮ 12:00AM Auto-Reboot    :::::<br>
::::::::::::::::::::::::::::::::::::::::::::::::</b>
